{
	"info": {
		"_postman_id": "09f3c4c5-d925-4ea9-9f4e-4ccd4f0962fd",
		"name": "BAZAR_WS",
		"schema": "https://schema.getpostman.com/json/collection/v2.1.0/collection.json"
	},
	"item": [
		{
			"name": "CONTACTOS_LISTAR",
			"request": {
				"method": "GET",
				"header": [],
				"url": {
					"raw": "http://127.0.0.1:9000/api/v1/contacto",
					"protocol": "http",
					"host": [
						"127",
						"0",
						"0",
						"1"
					],
					"port": "9000",
					"path": [
						"api",
						"v1",
						"contacto"
					]
				}
			},
			"response": []
		},
		{
			"name": "CONTACTOS_BUSCAR_POR_ID",
			"request": {
				"method": "GET",
				"header": [],
				"url": {
					"raw": "http://127.0.0.1:9000/api/v1/contacto/23",
					"protocol": "http",
					"host": [
						"127",
						"0",
						"0",
						"1"
					],
					"port": "9000",
					"path": [
						"api",
						"v1",
						"contacto",
						"23"
					]
				}
			},
			"response": []
		},
		{
			"name": "CONTACTOS_GUARDAR",
			"request": {
				"method": "POST",
				"header": [],
				"body": {
					"mode": "raw",
					"raw": "{\r\n    \"nombres\": \"JUAN\",\r\n    \"apellido-paterno\": \"JUAN\",\r\n    \"apellido-materno\": \"JUAN\",\r\n    \"email\": \"JUAN\",\r\n    \"telefono\": \"JUAN\",\r\n    \"asunto\": \"JUAN\"\r\n}",
					"options": {
						"raw": {
							"language": "json"
						}
					}
				},
				"url": {
					"raw": "http://127.0.0.1:9000/api/v1/contacto",
					"protocol": "http",
					"host": [
						"127",
						"0",
						"0",
						"1"
					],
					"port": "9000",
					"path": [
						"api",
						"v1",
						"contacto"
					]
				}
			},
			"response": []
		},
		{
			"name": "CONTACTOS_DELETE",
			"request": {
				"method": "DELETE",
				"header": [],
				"body": {
					"mode": "raw",
					"raw": "{\r\n    \"id\": \"21\"\r\n}",
					"options": {
						"raw": {
							"language": "json"
						}
					}
				},
				"url": {
					"raw": "http://127.0.0.1:9000/api/v1/contacto",
					"protocol": "http",
					"host": [
						"127",
						"0",
						"0",
						"1"
					],
					"port": "9000",
					"path": [
						"api",
						"v1",
						"contacto"
					]
				}
			},
			"response": []
		},
		{
			"name": "CONTACTOS_ACTUALIZAR",
			"request": {
				"method": "PUT",
				"header": [],
				"body": {
					"mode": "raw",
					"raw": "{\r\n    \"id\": \"23\",\r\n    \"nombres\": \"JUAN\",\r\n    \"apellido-paterno\": \"PEREZ\",\r\n    \"apellido-materno\": \"PEREZ\",\r\n    \"email\": \"J@J.cl\",\r\n    \"telefono\": \"123456789\",\r\n    \"asunto\": \"PROBLEMAS SITIO WEB\"\r\n}",
					"options": {
						"raw": {
							"language": "json"
						}
					}
				},
				"url": {
					"raw": "http://127.0.0.1:9000/api/v1/contacto",
					"protocol": "http",
					"host": [
						"127",
						"0",
						"0",
						"1"
					],
					"port": "9000",
					"path": [
						"api",
						"v1",
						"contacto"
					]
				}
			},
			"response": []
		}
	]
}